// room script file
function on_event(EventType event, int data) {
  if (event==eEventEnterRoomBeforeFadein){
       button_anim_killer();
       musique=(music_slider.Value);
     if (musique<=17) SetMusicVolume(-3);
else if ((musique>=18)&&(musique<=34))SetMusicVolume(-2);
else if ((musique>=35)&&(musique<=50))SetMusicVolume(-1);
else if ((musique>=51)&&(musique<=68))SetMusicVolume(0);
else if ((musique>=69)&&(musique<=85))SetMusicVolume(1);
else if ((musique>=86)&&(musique<=95))SetMusicVolume(2);
else if (musique>=96)SetMusicVolume(3);
SetMusicMasterVolume((music_slider.Value));
if (((GetGlobalInt(1)==1)||(GetGlobalInt(1)==2))&&(Stand.Room==5)){dumpster.Transparency=100;}
cattro.Transparency=99;
fore_bldgs.SetPosition(-1, 159);
bg_bldgs.SetPosition(-1, 220);
mtns.SetPosition(-1, 115);
if (GetGlobalInt(101)!=77){musicplate.Transparency=40; musicplate.SetPosition(-75, 235);} SaleInProgress=0;

if ((ampm==0)&&((hour<8)&&(hour>=2))){//Early Morning
SetBackgroundFrame(1); mtns.Graphic=1712; fore_bldgs.Graphic=1713;NatMusic(33); trashcan.Graphic=3720; dumpster.Graphic=4680; pawn_door.Graphic=3598;}

if ((ampm==0)&&(hour>=8)&&(hour!=12)){//Morning
SetBackgroundFrame(0); mtns.Graphic=124; fore_bldgs.Graphic=1571; NatMusic(32); trashcan.Graphic=3719; dumpster.Graphic=4679; pawn_door.Graphic=3610;}

if ((ampm==1)&&(hour==12)){//NOON
SetBackgroundFrame(0); mtns.Graphic=124; fore_bldgs.Graphic=1571; NatMusic(32); trashcan.Graphic=3719; dumpster.Graphic=4679; pawn_door.Graphic=3610;}

if ((ampm==1)&&(hour==1)){//day
SetBackgroundFrame(0); mtns.Graphic=124; fore_bldgs.Graphic=1571; NatMusic(32); trashcan.Graphic=3719; dumpster.Graphic=4679; pawn_door.Graphic=3610;}

if ((ampm==1)&&((hour>=2)&&(hour<=8))){//late day
SetBackgroundFrame(0); mtns.Graphic=124; fore_bldgs.Graphic=125; NatMusic(32); trashcan.Graphic=3719; dumpster.Graphic=4679; pawn_door.Graphic=3610;}

if ((ampm==1)&&(hour>=9)&&(hour!=12)){//Night
SetBackgroundFrame(1); mtns.Graphic=1712; fore_bldgs.Graphic=1714; NatMusic(33); trashcan.Graphic=3720; dumpster.Graphic=4680; pawn_door.Graphic=3598;}

if ((ampm==0)&&(hour==12)){//Midnight
SetBackgroundFrame(1); mtns.Graphic=1712; fore_bldgs.Graphic=1714; NatMusic(33); trashcan.Graphic=3720; dumpster.Graphic=4680; pawn_door.Graphic=3598;}

if ((ampm==0)&&(hour==1)){//Late Night
SetBackgroundFrame(1); mtns.Graphic=1712; fore_bldgs.Graphic=1714; NatMusic(33); trashcan.Graphic=3720; dumpster.Graphic=4680; pawn_door.Graphic=3598;}

if ((GetGlobalInt(101)==1)&&(GetGlobalInt(1)==1)&&(Stand.Room==5)){Stand.Baseline=30; //Andrus Stand Prep
if (lockup.Room!=5){lockup.ChangeRoom(5); lockup.FollowCharacter(Stand, FOLLOW_EXACTLY, 0);
lockup.Baseline=31; lockup.Transparency=100;}}

if ((GetGlobalInt(1)==2)&&(Stand.Room==5)){Stand.Baseline=30;  //Mel Stand Prep
if (lockup.Room!=5){lockup.ChangeRoom(5); lockup.FollowCharacter(Stand, FOLLOW_EXACTLY, 0);
lockup.Baseline=31; lockup.Transparency=0;}}

if (GetGlobalInt(101) == 1){//Andrus Intro!
player.Transparency=0; TStand.Transparency=0; player.LockView(31); SetTimer(10, 10); lockup.Transparency=100;
clockspeed=9999999;///Careful, now!!!
}

if (GetGlobalInt(101)==77){//Ending Credits
  gFullblack.Visible=true; gFullblack.Transparency=80; 
  musicplate.Visible=false; musicplate.SetPosition(9999, 9999);///aghghgh!
  SetBackgroundFrame(1); mtns.Graphic=1712; fore_bldgs.Graphic=1714; pawn.Graphic=3586; 
  trashcan.Graphic=3720; dumpster.Graphic=4680; pawn_door.Graphic=3598;
  player.Transparency=99; //Not taking?
  player.ChangeView(37);//Let's try this.
  hour=8; ampm=1; milhour=20; NatMusic(7); gPick.Visible=false;
  if (GetGlobalInt(1)==2){Andrus.Animate(6, 0, eOnce, eNoBlock);}//Closed up
}

if ((GetGlobalInt(1)==1)&&(Stand.Room==5)&&(GetGlobalInt(101)!=1)&&(GetGlobalInt(101)!=77)){Stand.Transparency=0; lockup.ChangeRoom(5); 
lockup.Transparency=0; lockup.FollowCharacter(Stand, FOLLOW_EXACTLY, 0); Stand.Baseline=30; lockup.Baseline=31;}
player.Transparency=0; TStand.Transparency=99;//Every Room Stuff

if (GetGlobalInt(1)!=1){
    if ((npcAndrus_location==5)&&(Andrus.Room!=5)){
      Andrus.ChangeRoom(5, dumpster.X+25, dumpster.Y); dumpster.Transparency=100;
      if ((milhour<7)||(milhour>19)){Andrus.LockView(293);}
      else {Andrus.UnlockView();}
      }
    if (Andrus.Room==5){Andrus.Baseline=31;}
}

if ((npcVinny_location==5)&&(GetBackgroundFrame()==0)){
Vinny.ChangeRoom(5,390,160); npcVinny_moving=false; Vinny.Animate(0, 3, eRepeat, eNoBlock);}
else {Vinny.ChangeRoom(0,10,10);}
if (Vinny.Room==5){Vinny.Baseline=50;}

//==Stack Weirdness==//
if ((Stack.Room==5)&&(Stand.Room!=5)){//Delivered to wrong location - fixing now.
Stack.ChangeRoom((Stand.Room), (Stand.x-50),  (Stand.y+3)); Stack.Baseline=999; Stack.Transparency=0;}

//==Crow Setup==//

//if (GetGlobalInt(1)==1){Crow.X=225; Crow.Y=143;}
//else if (GetGlobalInt(1)!=1){
int Nestpos=Random(4);
if (Nestpos==0){Crow.X=228; Crow.Y=77;}
if (Nestpos==1){Crow.X=124; Crow.Y=32;}
if (Nestpos==2){Crow.X=452; Crow.Y=92;}
if (Nestpos==3){Crow.X=255; Crow.Y=142;}
if (Nestpos==4){Crow.X=393; Crow.Y=161;}
Crow.SetView(171, 0, 0);//Reset Anim
SetTimer(4, 40);//Crow Mannerism

}}
int timtrod;

//int Crowsflown=0;//Turns to 1 when activated
function Crowbustout(){
//if (Crowsflown==0){
//Crowsflown=1;
if (Crow.Loop!=2){
Crow.Animate(2, 3, eOnce, eNoBlock, eForwards);
Crow.Move(550, (Crow.Y), 4, eNoBlock, eAnywhere);}}

function CatIntro()
{
                            //catro.Animate(0, 3, eRepeat, eNoBlock);
                            //catro.Move(308, 158, 2, eBlock, eAnywhere);
                            //
                            
       cTimothy.ChangeRoom(5, (TStand.X), (TStand.Y)); TStand.Transparency=100;
       player.UnlockView();
       player.LockView(31); 
       player.Animate(2, 3, eRepeat, eNoBlock, eForwards);
       player.Walk(308, 160, eBlock, eAnywhere);
       player.UnlockView();                 
       player.LockView(31); 
       player.Animate(0, 3, eOnce, eBlock);
       player.UnlockView();
       cattro.Transparency=0;
       SetTimer(10, 0);
       
}

int credslide;
int credfade;
function room_AfterFadeIn(){
if (GetGlobalInt(101)!=77){FadeObjectOut_NoBlock(musicplate, 99, 10, 0);}
if (GetGlobalInt(101) == 1){Wait(20);}
if (GetGlobalInt(206)==0){UnlockMusic(); SetGlobalInt(206, 1);}

if (player.PreviousRoom==29){
  dSaveprompt.Start();
      if (cSlot2.InventoryQuantity[Contract_G.ID]!=0){
          Stack.ChangeRoom((Stand.Room), (Stand.x-50),  (Stand.y+3));
          Stack.Baseline=999; Stack.Transparency=0;
          }
  }

if (GetGlobalInt(101)==77){//Ending Credits
          SetBackgroundFrame(1); mtns.Graphic=1712; fore_bldgs.Graphic=1714; pawn.Graphic=3586;
          trashcan.Graphic=3720; dumpster.Graphic=4680; pawn_door.Graphic=3598;
          hour=10; minute=30; ampm=1; milhour=22;//TIME SET
          player.Transparency=99; musicplate.Visible=false; gNotify.Visible=false;
          gCredits.Visible=true;
          while (csprite.Y>-1000){csprite.Y-=1; Wait(3); credslide+=1;
                if (credslide>=5){credfade+=1; credslide=0;
                  if (gFullblack.Transparency>=2){gFullblack.Transparency-=2;} 
                  //if (credfade>=5){player.x-=1; credfade=0;}
                  }
          }
          gCredits.Visible=false; FadeOut(1); gFullblack.Visible=false; Wait(80);
          Wait(5);gFullblack.Visible=false; gPick.Visible=false; pick.X=38; pick.Y=16; close_pick.Visible=true; 
          Wait(5); FadeGuiOut_NoBlock(gFullblack, 100, -250, 0);Wait(5);
          //GameOver();
          curtaincall();}
}

function CrowMannerism(){
 if (Crow.Loop==2){}
 else{
 int mrc=Random(2); Crow.SetView(171);
 if (mrc==0){Crow.Animate(0, 3, eRepeat, eNoBlock, eForwards); SetTimer(4, 200);}
 if (mrc==1){Crow.Animate(1, 3, eRepeat, eNoBlock, eForwards); SetTimer(4, 200);}
 if (mrc==2){Crow.Animate(1, 3, eRepeat, eNoBlock, eForwards); SetTimer(4, 200);}
}}


function killtim(){
clockspeed=27;//Aghg!///Careful, now!!!
TStand.Animate(2, 3, eRepeat, eNoBlock, eForwards); 
FadeObjectOut_NoBlock(TStand, 100, 0);
player.StopMoving();
player.UnlockView();
player.LockView(28);
DBG2.Animate(26, 1, 3, eOnce);
PCTalk(); dText.Text=("Yes. Okay.");  blab1();
PCTalk(); dText.Text=("We now have news stand.");  blab2(); 
PCListen(); customerlisten(); dName.Text=(" "); dText.Text=(" "); //blank
StopPop();
Wait(80); FadeOut(5);
SetGlobalInt(101, 3); SetGlobalInt(107, 0);
SetTimer(11, 0); SetGlobalInt(50, 5); SetGlobalInt(51, 1);
cTimothy.ChangeRoom(15, 184, 133);
gDialog.Visible=false;
player.ChangeRoom(11, 173,  158);
}

function region1_Standing()
{
if (GetGlobalInt(101) ==2){}
else if (GetGlobalInt(101) ==1){}
else if((IsKeyPressed(372)==1)||(IsKeyPressed(87)==1)&&(gMake.Visible==false)){//Seanny's!
if ((fore_bldgs.Graphic==1571)||(fore_bldgs.Graphic==1713)){
Wait(5); player.DoorHandle(); Wait(20); PlaySound(60); 
TopUp("It's locked", "Hours:[2:00pm - 2:00am[21+ Only"); player.DoorHandle2();}
else{
if ((GetGlobalInt(1)==3)&&(GetGlobalInt(52) == 1)){Stand.UnlockView(); SetGlobalInt(52, 3); Stand.FollowCharacter(null, 0, 0); Wait(5);}
player.DoorHandle();
if (IsChannelPlaying(7)==0)
    {int ran=Random(1);
    if (ran==0) PlaySoundEx(33, 3);
    else if (ran==1) PlaySoundEx(35, 3);
    }
  FranksDoor.SetView(19, 0, 0);
  FranksDoor.Animate(0, 2, eOnce, eBlock);  
  player.DoorHandle2();
  if (IsChannelPlaying(7)==0)
    {int ran=Random(1);
    if (ran==0) PlaySoundEx(34, 3);
    else if (ran==1) PlaySoundEx(36, 3);
    }  
  FadeCharacterOut_NoBlock(player, 99, -15, 0);
  FranksDoor.Animate(1, 1, eOnce, eBlock);
  if (Richard.Room==5){Richard.ChangeRoom(24, 100, 100);}
  if (George.Room==5){George.ChangeRoom(24, 100, 100);}
  if (Toney.Room==5){Toney.ChangeRoom(24, 100, 100);}
  player.ChangeRoom(16, 111, 155);
  }

}}

int speaknotice;
function region2_WalksOnto(){
if (GetGlobalInt(101) == 1) { // FIRST SCENE: ANDRUS
if (speaknotice==0){InfoPop(6406, 50); speaknotice=1;}
}}

bool downinformed;

function region2_Standing(){

//Press Down arrow to use stand
if ((GetGlobalInt(1)==1)&&(downinformed!=true)&&(cTimothy.Room!=5)&&(firstsetup==0)){
if ((gInfo.Visible==false)&&(downinformed!=true)){InfoPop(3282, 137); downinformed=true;}}

//Uptalk
if (((IsKeyPressed(372)==1)||(IsKeyPressed(87)==1))&&(gSavegame.Visible==false)&&(gLoadgame.Visible==false)&&(gMake.Visible==false)&&(gDialog.Visible==false)){//UP Uptalk!
  if ((GetGlobalInt(101)<=5)&&(timtrod==1)&&(Stack.Room!=5)){//Tutorial: Space bar for Menu
  TalkPop(); Wait(40);
  PCListen(); customertalk(); dText.Text=("Go ahead and set the price you want to charge for these papers. ");  blab4();
  PCListen(); customertalk(); dText.Text=("Press the space bar to open the main menu. ");  blab4();
  PCListen(); customerlisten(); dName.Text=(" "); dText.Text=(" ");
  StopPop();}
else{
if (GetGlobalInt(101) == 1) { // FIRST SCENE: ANDRUS
player.StopMoving();
player.UnlockView();
player.LockView(28);
TStand.SetView(29);
if (gInfo.Visible==true){InfoStop();}
TalkPop(); 
SetTimer(3, 43);}}}
}

int Popenclose=0;
function room_RepExec(){
if ((gBonus.Visible==false)&&(gGameover.Visible==false)&&(gBreakdown.Visible==false)&&(gStock.Visible==false)&&(gameover==false)){
//if ((ampm==1)&&(hour>1)){fore_bldgs.Graphic=125;}
//if ((ampm==0)&&(hour>1)){fore_bldgs.Graphic=1571;}

if ((ampm==0)&&((hour<8)&&(hour>=2))){//Early Morning
SetBackgroundFrame(1); mtns.Graphic=1712; fore_bldgs.Graphic=1713;  pawn.Graphic=3586; NatMusic(33); trashcan.Graphic=3720; dumpster.Graphic=4680; pawn_door.Graphic=3598;}
if ((ampm==0)&&(hour>=8)&&(hour!=12)){//Morning
SetBackgroundFrame(0); mtns.Graphic=124; fore_bldgs.Graphic=1571;  pawn.Graphic=3585; NatMusic(32); trashcan.Graphic=3719;  dumpster.Graphic=4679; pawn_door.Graphic=3610;}
if ((ampm==1)&&(hour==12)){//NOON
SetBackgroundFrame(0); mtns.Graphic=124; fore_bldgs.Graphic=1571; pawn.Graphic=3585; NatMusic(32); trashcan.Graphic=3719;  dumpster.Graphic=4679; pawn_door.Graphic=3610;}
if ((ampm==1)&&(hour==1)){//day
SetBackgroundFrame(0); mtns.Graphic=124; fore_bldgs.Graphic=1571; pawn.Graphic=3585; NatMusic(32); trashcan.Graphic=3719;  dumpster.Graphic=4679; pawn_door.Graphic=3610;}
if ((ampm==1)&&((hour>=2)&&(hour<=8))){//late day
SetBackgroundFrame(0); mtns.Graphic=124; fore_bldgs.Graphic=125; pawn.Graphic=3585; NatMusic(32); trashcan.Graphic=3719;  dumpster.Graphic=4679; pawn_door.Graphic=3610;}
if ((ampm==1)&&(hour>=9)&&(hour!=12)){//Night
SetBackgroundFrame(1); mtns.Graphic=1712; fore_bldgs.Graphic=1714; pawn.Graphic=3586; NatMusic(33); trashcan.Graphic=3720; dumpster.Graphic=4680; pawn_door.Graphic=3598;}
if ((ampm==0)&&(hour==12)){//Midnight
SetBackgroundFrame(1); mtns.Graphic=1712; fore_bldgs.Graphic=1714;  pawn.Graphic=3586; NatMusic(33); trashcan.Graphic=3720; dumpster.Graphic=4680; pawn_door.Graphic=3598;}
if ((ampm==0)&&(hour==1)){//Late Night
SetBackgroundFrame(1); mtns.Graphic=1712; fore_bldgs.Graphic=1714;  pawn.Graphic=3586; NatMusic(33); trashcan.Graphic=3720; dumpster.Graphic=4680; pawn_door.Graphic=3598;}

if ((TJ.x==430)&&(Popenclose==1)){pawn_door.SetView(129, 0, 0); pawn_door.Animate(1, 1, eOnce, eNoBlock);  PlaySound(33); TJ.ChangeRoom(24, 100, 100); Popenclose=0;}
if ((hour==10)&&(minute==28)&&(ampm==0)){TJ.LockView(174); TJ.ChangeRoom(5, 5, 160); TJ.Baseline=600; TJ.Transparency=0; TJ.Walk(430, 160, eNoBlock, eAnywhere); Popenclose=1;}

if (IsTimerExpired(4)==1){CrowMannerism();}

if (( ((Crow.X - player.x) <= 30) && (Crow.X - player.x) >= -30)&& (Crow.Y>105)){
Crowbustout();}

if (IsTimerExpired(10)){//Andrus Very Beginning Intro!
                            CatIntro();
                            }

if (GetGlobalInt(107) == 99) {
 if (gStand_Gui.Visible == true){}
 else {
   TalkPop();
   SetTimer(11, 43);
   dName.Text=(" "); dText.Text=(" ");
   SetGlobalInt(107, 0);}}//Tutorial 2nd Half Setup 

if (IsTimerExpired(11)==1){//Tutorial Second Half Runtime
  TStand.SetView(29, 0); DBG2.NormalGraphic=108; dName.Visible=true; dText.Visible=true; 

if (PaperPrice>1.49){//Too Hot!
PCTalk(); customerlisten(); dText.Text=String.Format("I think I am to be charging $%.2f for paper.",PaperPrice); blab1();
PCListen(); customertalk(); dText.Text=("That... might be a little high. ");  blab2(); 
PCListen(); customertalk(); dText.Text=("People probably won't pay much more than a dollar, if even that.");  blab2(); 
PCTalk(); customerlisten(); dText.Text=("Yes, good. "); blab1();
PCListen(); customertalk(); dText.Text=("Try lowering the price a little bit.");  blab2(); 
PCListen(); customerlisten(); dText.Text=(" "); dName.Text=(" "); StopPop();
SetGlobalInt(107, 1); SetGlobalInt(101, 2);}

if (PaperPrice<=0.49){//Too Cold!
PCTalk(); customerlisten(); dText.Text=String.Format("I think I am to be charging $%.2f for paper.",PaperPrice); blab1();
PCListen(); customertalk(); dText.Text=("Do you think that'll be enough? ");  blab2(); 
PCListen(); customertalk(); dText.Text=("People are willing to pay at least fifty cents.");  blab2(); 
PCTalk(); customerlisten(); dText.Text=("Yes, good. "); blab1();
PCListen(); customertalk(); dText.Text=("...and don't forget that each paper costs you $0.25.");  blab2(); 
float biggums =(PaperProfit*20.00);
PCListen(); customertalk(); 
if (biggums<0.00){dText.Text=("Even if you sold all twenty papers, you'd still be losing money.");  blab2();}
if (biggums>0.00){dText.Text=String.Format("If you sold all twenty papers, you'd only make $%.2f in profit.",biggums);  blab2();}

PCTalk(); customerlisten(); dText.Text=("Ahh... Okay. "); blab1();
PCListen(); customertalk(); dText.Text=("Try raising the price a little bit.");  blab2(); 
PCListen(); customerlisten(); dText.Text=(" "); dName.Text=(" "); StopPop();
SetGlobalInt(107, 1); SetGlobalInt(101, 2);}

if ((PaperPrice<=1.49)&&(PaperPrice>0.49)){//Just right...
PCTalk(); customerlisten(); dText.Text=String.Format("I think I am to be charging $%.2f for paper.",PaperPrice); blab1();
PCListen(); customertalk(); dText.Text=("That's an excellent price.");  blab2(); 
PCTalk(); customerlisten(); dText.Text=("Good."); blab1();
PCListen(); customertalk(); dText.Text=("It's pretty simple, once you get the hang of it.");  blab3();  
PCListen(); customertalk(); dText.Text=("Oh! I almost forgot...");  blab3();
PCListen(); customertalk(); dText.Text=("You'll need this vendor's permit.");  blab3();
PCListen(); customerlisten(); dName.Text=(" "); dText.Text=(" ");
PlaySound(9);
TopItem("Got 'Franklin Permit!'"," ",1632); 
cSlot2.AddInventory(Permit_franklin);
  PCListen(); customertalk(); dText.Text=("This one is for Franklin Avenue, but you can always move the stand later.");  blab3();
  PCListen(); customertalk(); dText.Text=("Not that you'd ever need to...");  blab3();
  PCListen(); customertalk(); dText.Text=("This is a good location, on Franklin.");  blab1();
  PCListen(); customertalk(); dText.Text=("This stand can take care of you. ");  blab2(); 
  PCListen(); customertalk(); dText.Text=("Just run it carefully and be patient.");  blab2(); 
  PCTalk(); customerlisten(); dText.Text=("Yes, good. "); blab1();
  PCTalk(); customerlisten(); dText.Text=("Thank you for stand, and for your advice. "); blab2(); 
  PCListen(); customertalk(); dText.Text=("Just promise to take care of my regulars?");  blab2();
  PCTalk(); customerlisten(); dText.Text=("Yes, good. Okay. "); blab1();
  dName.Text=(" "); dText.Text=(" "); killtim();}}

if (IsTimerExpired(3)==1)//run first conv.
{ salebuyer=("Tim"); customerlisten();
  TStand.SetView(29, 0); DBG2.NormalGraphic=108; // Setup Tim
  if ((timtrod!=1)&&(Stack.Room!=5)){timtrod=1;
  PCListen(); customertalk(); dText.Text=("Hey, there.");  blab1();
  PCListen(); customertalk(); dText.Text=("Come to take my stand, huh?");  blab2(); 
  PCTalk(); customerlisten(); dText.Text=("Hello, Timothy."); blab1();
  PCTalk(); customerlisten(); dText.Text=("Yes, I'm here to buy stand from you. "); blab2(); 
  PCListen(); customertalk(); dText.Text=("Glad she'll be put to use.");  blab2(); 
  PCListen(); customertalk(); dText.Text=("I paid for the permit but I haven't used this stand for almost a year, now.");  blab5();
  PCTalk(); customerlisten(); dText.Text=("I have check. Is check okay?"); blab2(); 
  PCListen(); customertalk(); dText.Text=("Sure, a check is fine.");  blab1(); 
  PCListen(); customertalk(); dText.Text=("Timothy Bigby. B-I-G-B-Y.");  blab2(); 

  DBG1.Animate(16, 3, 3, eRepeat); dName.Text=(" "); dText.Text=(" ");PlaySound(1);
  DBG2.Animate(27, 1, 3, eRepeat); customerlisten(); player.LockView(28); // Cheque Writing Action
  player.Animate(0, 2, eOnce, eBlock, eForwards); // Cheque Writing Action
  
  PCTalk(); dText.Text=("Date?"); blab1();   
  PCTalk(); dText.Text=("What is date, today?"); blab1(); 
  PCListen(); customertalk(); dText.Text=("Eighteenth.");  blab1(); 
  PCListen(); customertalk(); dText.Text=("April-- Write four dash eighteen.");  blab2(); 
  
  DBG1.Animate(16, 3, 3, eRepeat); dName.Text=(" "); dText.Text=(" "); PlaySound(1);
  DBG2.Animate(27, 1, 3, eRepeat); customerlisten(); player.LockView(28); // Cheque Writing Action
  player.Animate(0, 2, eOnce, eBlock, eForwards);// Cheque Writing Action
  DBG1.Animate(16, 1, 3, eRepeat); dName.Text=(" "); dText.Text=(" "); PlaySound(2);//Blank + Check Sound
  DBG2.Animate(27, 1, 3, eRepeat); TStand.Animate(2, 3, eRepeat, eNoBlock); player.LockView(28); // Mag Hands
  player.LockView(23); player.Animate(7, 2, eOnce, eBlock, eForwards);// Mag Hands

  PCListen(); DBG2.Animate(27, 1, 3, eRepeat); TStand.Animate(2, 3, eRepeat, eNoBlock);
  PlaySound(4); Money -=2000.00; TopUp("Stand Purchase", "$2,000"); WaitKey(30);//Money Spending 
  
  PCListen(); DBG2.Animate(27, 1, 3, eRepeat); TStand.Animate(2, 3, eRepeat, eNoBlock);
  PlaySound(9); TopUp("Stand Purchase", "Got 'STAND D'!"); WaitKey(30);
  StandImage.NormalGraphic=165;
  
  PCListen(); customertalk(); dText.Text=("Looks good.");  blab1(); 
  PCListen(); customertalk(); dText.Text=("I guess you're all set, and I should get out of here.");  blab4(); 
  PCListen(); customertalk(); dText.Text=("Did you need any help getting started?");  blab3(); 

  dTimstart.Start();}
  else{//Stock the stand portion of tutorial
  PCListen(); customertalk(); dText.Text=("Walk over to the stack of newspapers, then press the down arrow to start. ");  blab4();
  PCListen(); customerlisten(); dName.Text=(" "); dText.Text=(" ");
  Stack.ChangeRoom((Stand.Room), (Stand.x-50),  (Stand.y+3)); Stack.Baseline=999; Stack.Transparency=0;
StopPop();}}
  
int id = 9;
while (id <= 55) // run for characters with the following IDs: 2, 3, 4, 5, 6
{
if ((character[ id ].x >= 748)||(character[id ].x <= 2)){  character[ id ].ChangeRoom(24, 100, 100);}
id ++; // proceed to testing the next character in a row
}
if (GetGlobalInt(1)==3){Stand.Baseline=(cEgo.y+1);}
if (GetGlobalInt(1)==4){Stand.Baseline=(cLogan.y+1);}

}}//End Repex


function room_LeaveLeft()
{
if (GetGlobalInt(101) ==2){}
else if (GetGlobalInt(101) ==1){}
else {
FadeOut(5);
player.ManualScaling=false;
Wait(5);
SetGlobalInt(98,5);
player.ChangeRoom(10, 100, 100);
if (Richard.Room==5){Richard.ChangeRoom(24, 100, 100); Richard.FollowCharacter(null, 0, 0);}
if (George.Room==5){George.ChangeRoom(24, 100, 100); George.FollowCharacter(null, 0, 0);}
if (Toney.Room==5){Toney.ChangeRoom(24, 100, 100); Toney.FollowCharacter(null, 0, 0);}
}
}

function room_LeaveRight()
{
if (GetGlobalInt(101) ==2){}
else if (GetGlobalInt(101) ==1){}
else {
FadeOut(5);
player.ManualScaling=false;
Wait(5);
if (Richard.Room==5){Richard.ChangeRoom(24, 100, 100);}
if (George.Room==5){George.ChangeRoom(24, 100, 100);}
if (Toney.Room==5){Toney.ChangeRoom(24, 100, 100);}
SetGlobalInt(98,5);
player.ChangeRoom(10, 100, 100);
}
}

function room_Leave(){places();}

function region5_Standing(){
if((IsKeyPressed(372)==1)||(IsKeyPressed(87)==1)&&(gMake.Visible==false)){//Pawn Shop
if (GetGlobalInt(101) ==2){}
else if (GetGlobalInt(101) ==1){}
else if ((milhour<11)||(milhour>21)||(Teejanger>=5)){
Wait(5); player.DoorHandle(); Wait(20); PlaySound(60); 
TopUp("It's locked", "Hours:[11:00am - 10:00pm[Seven Days a Week"); player.DoorHandle2();}
else
  {
    if ((GetGlobalInt(1)==3)&&(GetGlobalInt(52) == 1)){Stand.UnlockView(); SetGlobalInt(52, 3); Stand.FollowCharacter(null, 0, 0); Wait(5);}
player.DoorHandle();
int ran=Random(1);
    {    if (ran==0) PlaySoundEx(33, 3);
    else if (ran==1) PlaySoundEx(35, 3);
    }
     if (pawn_door.Graphic==3598){pawn_door.SetView(139, 0, 0);}
else if (pawn_door.Graphic==3610){pawn_door.SetView(140, 0, 0);}
  pawn_door.Animate(0, 2, eOnce, eBlock);  
player.DoorHandle2();
int ran2=Random(1);
    {if (ran2==0) PlaySoundEx(34, 3);
    else if (ran2==1) PlaySoundEx(36, 3);
    }  
FadeCharacterOut_NoBlock(player, 99, -15, 0);
  pawn_door.Animate(1, 2, eOnce, eBlock);  
   SetGlobalInt(90, 1);//Change to Pawnshop
   player.ChangeRoom(33, 83, 144);
  }
}}