// room script file
function on_event(EventType event, int data) {
  if (event==eEventEnterRoomBeforeFadein) 
{
       musique=(music_slider.Value);
     if (musique<=17) SetMusicVolume(-3);
else if ((musique>=18)&&(musique<=34))SetMusicVolume(-2);
else if ((musique>=35)&&(musique<=50))SetMusicVolume(-1);
else if ((musique>=51)&&(musique<=68))SetMusicVolume(0);
else if ((musique>=69)&&(musique<=85))SetMusicVolume(1);
else if ((musique>=86)&&(musique<=95))SetMusicVolume(2);
else if (musique>=96)SetMusicVolume(3);
SetMusicMasterVolume((music_slider.Value));
NatMusic(8);


player.Transparency=0;
oTroy.Transparency=99; oTroy.SetView(60);
oMarcus.Transparency=99; oMarcus.SetView(86);
cSeany.ChangeRoom(16, 227, 128); cSeany.Baseline=0; cSeany.LockView(34); cSeany.Animate(1, 3, eRepeat, eNoBlock, eForwards);
dText.Visible=true; dName.Text=(" "); dText.Text=(" ");
if (Stand.Room==16){Stand.Transparency=99;}
SetTimer(4, 120);
if ((ampm==1)&&(hour >= 9)){
  oMarcus.Transparency=0; oMarcus.Animate(0, 3, eRepeat, eNoBlock);
  oTroy.Transparency=0; oTroy.Animate(2, 3, eRepeat, eNoBlock);}
  salebuyer=("Seany"); customerlisten();
}
}


function TroyDrink (){
int tcd=Random(1); 
if ((oTroy.Visible==true)&&(oTroy.Transparency<98)){
   if (tcd==0){oTroy.Animate(1, 3, eOnce, eNoBlock, eForwards);
               oMarcus.Animate(7, 3, eOnce, eNoBlock, eForwards);
               SetTimer(4, 180);}
   if (tcd==1){oTroy.Animate(2, 3, eRepeat, eNoBlock, eForwards); 
               oMarcus.Animate(8, 3, eOnce, eNoBlock, eForwards);
               SetTimer(4, 180);}
}}

function FaganNumbers()
{
  PlaySound(39);
  gDialog.Visible=false;
  fmu_text.Text=(" "); fmu_speaker.Text=(" ");
  fmu_pb.NormalGraphic=2917;
  gFaganMenu.BackgroundGraphic=397;
  fmu_text.TextColor=7; fmu_speaker.TextColor=7; 
  menu_item_1.NormalGraphic=1840; menu_item_1.MouseOverGraphic=1842; //Beer
  menu_item_2.NormalGraphic=1841; menu_item_2.MouseOverGraphic=1843; //Scotch
  menu_item_3.NormalGraphic=1844; menu_item_3.MouseOverGraphic=1845; //Crisps
  gFaganMenu.Visible=true;
  PCListen();  fmu2.NormalGraphic=393; fmu2.Animate(33, 1, 3, eRepeat);
  fmu_text.Text=(" "); fmu_speaker.Text=(" ");
  Mouse.Visible=true;
}

bool warned1;
bool warned2;
function FaganPortraiture()
{
if (DBG0.Graphic ==2184){
  PCListen(); customerlisten(); dName.Visible=true; dText.Visible=true; //Setup
  if (GetGlobalInt(410)==0){
    int shp=Random(2); 
if (shp==0) {
  customertalk(); PCListen(); dText.Text=("Hey, pally."); blab1(); 
  PCTalk(); customerlisten(); dText.Text=("Hey."); blab1();
  dText.Text=(" "); dName.Text=(" ");
  PCListen(); customerlisten();
  salebuyer=("Seany"); BuyorTalk();}
else if (shp==1){
  customertalk(); PCListen(); dText.Text=("Hey, pally."); blab1();
  PCTalk(); customerlisten(); dText.Text=("Hello."); blab1();
  dText.Text=(" "); dName.Text=(" ");
  PCListen(); customerlisten();
  salebuyer=("Seany"); BuyorTalk();}

else if (shp==2){
  customertalk(); PCListen(); dText.Text=("Hey there, pally."); blab1();
  PCTalk(); customerlisten(); dText.Text=("Hello."); blab1();
  dText.Text=(" "); dName.Text=(" ");
  PCListen(); customerlisten();
   salebuyer=("Seany"); BuyorTalk();}}
  
  if ((GetGlobalInt(410)==1)&&(warned1!=true)){warned1=true;
  customertalk(); PCListen(); dText.Text=("D'you get my note?"); blab1();
  customertalk(); PCListen(); dText.Text=("You know... The one I left on your drunk ass, before you got dragged into a taxi?"); blab5();
  customerlisten(); PCTalk(); dText.Text=("Yes. It won't happen again."); blab2();
  customertalk(); PCListen(); dText.Text=("Still smells like puke in here. "); blab2();
  dText.Text=(" "); dName.Text=(" ");
  PCListen(); customerlisten();
  salebuyer=("Seany"); dBuyorTalk.Start();}

  if ((GetGlobalInt(410)==2)&&(warned2!=true)){warned2=true;
  customertalk(); PCListen(); dText.Text=("D'you get my note?"); blab1();
  customertalk(); PCListen(); dText.Text=("You know... The one I left on your drunk ass, before you got dragged into a taxi?"); blab5();
  customerlisten(); PCTalk(); dText.Text=("Yes. It won't happen again."); blab2();
  customertalk(); PCListen(); dText.Text=("Still smells like puke in here. "); blab2();
  dText.Text=(" "); dName.Text=(" ");
  PCListen(); customerlisten();
  salebuyer=("Seany"); dBuyorTalk.Start();}

  if (GetGlobalInt(410)==3){
  customertalk(); PCListen(); dText.Text=("Get lost."); blab1();
  customertalk(); PCListen(); dText.Text=("I said I don't want you in here."); blab3();
  customerlisten(); PCTalk(); dText.Text=("But I--"); blab1();
  customertalk(); PCListen(); dText.Text=("Go on, get out. "); blab1();
  StopPop();}
  dName.Text=(" "); dText.Text=(" ");  //blank
  SetTimer(3, 0);}
else 
{}}


function region1_Standing()
{
if((IsKeyPressed(372)==1)||(IsKeyPressed(87)==1))
  {
player.DoorHandle();
int ran=Random(1);
    {    if (ran==0) PlaySoundEx(33, 3);
    else if (ran==1) PlaySoundEx(35, 3);
    }
  fDoor.SetView(19, 0, 0);
  fDoor.Animate(0, 2, eOnce, eBlock);  
player.DoorHandle2();
int ran2=Random(1);
    {if (ran2==0) PlaySoundEx(34, 3);
    else if (ran2==1) PlaySoundEx(36, 3);
    }  
FadeCharacterOut_NoBlock(player, 99, -15, 0);
  fDoor.Animate(1, 1, eOnce, eBlock);  
  player.ChangeRoom(5, 177, 159);
  }
}

function region2_Standing(){
if((IsKeyPressed(372)==1)||(IsKeyPressed(87)==1)){
  if ((gDialog.Visible==false)&&(gFaganMenu.Visible==false)){TalkPop(); SetTimer(3, 43);}}}

function room_RepExec()
{
if (IsTimerExpired(3)==1){FaganPortraiture();}
if (IsTimerExpired(4)==1){TroyDrink();}

if ((hour>1)&&(ampm==0)&&(hour!=12)&&(gDialog.Visible==false)){//Closing Time!
CloseAll();
TalkPop(); Wait(40); 
PCListen(); customertalk(); dText.Text=("Attention patrons..."); blab1();
PCListen(); customertalk(); dText.Text=("The time is now after two o'clock."); blab2();
PCListen(); customertalk(); dText.Text=("Everybody get the fuck out!"); blab3();
PCListen(); customerlisten(); dText.Text=(" "); dName.Text=(" ");
if (player.InventoryQuantity[Ticket.ID]!=0){player.LoseInventory(Ticket);}
StopPop(); Wait(40); FadeOut(5); player.ChangeRoom(5, 177, 159);}

}

function Room_Load(){
//  aMusic8.Play();
}
