// room script file
function on_event(EventType event, int data) {
  if (event==eEventEnterRoomBeforeFadein) 
{
       musique=(music_slider.Value);
     if (musique<=17) SetMusicVolume(-3);
else if ((musique>=18)&&(musique<=34))SetMusicVolume(-2);
else if ((musique>=35)&&(musique<=50))SetMusicVolume(-1);
else if ((musique>=51)&&(musique<=68))SetMusicVolume(0);
else if ((musique>=69)&&(musique<=85))SetMusicVolume(1);
else if ((musique>=86)&&(musique<=95))SetMusicVolume(2);
else if (musique>=96)SetMusicVolume(3);
SetMusicMasterVolume((music_slider.Value));
NatMusic(22);


  player.Transparency=0;
cBarneys.LockView(36); cBarneys.Animate(1, 3, eRepeat, eNoBlock, eForwards);
dText.Visible=true; dName.Text=(" "); dText.Text=(" ");

int mc_talked; 
if (Marcus.Room!=27){Marcus.ChangeRoom(27, 287, 154); Marcus.Animate(7, 3, eOnce, eNoBlock, eForwards); Marcus.Baseline=10;}

SetTimer(1, 120);
salebuyer=("Barneys"); customerlisten();
if (cBarneys.Room!=27){cBarneys.ChangeRoom(27, 170, 149);}

if ((GetGlobalInt(411)==8)&&(cBarneys.InventoryQuantity[bCoffee_C.ID]!=0)){cBarneys.LoseInventory(bCoffee_C); cBarneys.AddInventory(bCoffee_S);}
}
}
int shp=0; 

function room_AfterFadeIn(){
  if (GetGlobalInt(214)==0){UnlockMusic(); SetGlobalInt(214, 1);}
  }

function room_FirstLoad(){}

function MarcusDrink ()
{  int mrc=Random(1); 
   if (mrc==0){Marcus.Animate(7, 3, eOnce, eNoBlock, eForwards); SetTimer(1, 180);}
   if (mrc==1){Marcus.Animate(8, 3, eOnce, eNoBlock, eForwards); SetTimer(1, 180);}
}

function BarneyNumbers()
{
  PlaySound(39);
  gDialog.Visible=false;
  gRoastierry.Visible=true;
  rmu_text.Text=(" "); rmu_label.Text=(" ");
  if (GetGlobalInt(1) == 1) {rmu1.NormalGraphic=52; rmu1.Animate(16, 1, 3, eRepeat);}//Andrus!
  if (GetGlobalInt(1) == 2) {rmu1.NormalGraphic=84; rmu1.Animate(24, 1, 3, eRepeat);}//Melanie!
  if (GetGlobalInt(1) == 3) {rmu1.NormalGraphic=90; rmu1.Animate(25, 1, 3, eRepeat);}//Vinny!
  if (GetGlobalInt(1) == 4) {rmu1.NormalGraphic=58; rmu1.Animate(17, 1, 3, eRepeat);}//Logan!
  rmu2.NormalGraphic=432; rmu2.Animate(35, 1, 3, eRepeat);
  Mouse.Visible=true;
  if ((GetGlobalInt(411)==1)||(GetGlobalInt(411)==2)||(GetGlobalInt(411)==3)||(GetGlobalInt(411)==4)||(GetGlobalInt(411)==5)||(GetGlobalInt(411)==6)){
    //I CAN HAS BOOK PLZ?!
    int gft=Random(3);
  if (gft==0){PCListen(); customertalk(); rmu_text.Text=("Did you happen to bring us a gift?"); blab4();}
  if (gft==1){PCListen(); customertalk(); rmu_text.Text=("Do you have the book with you?"); blab3();}
  if (gft==2){PCListen(); customertalk(); rmu_text.Text=("We're anxious to conclude our arrangement."); blab4();
              PCListen(); customertalk(); rmu_text.Text=("You've gotten the book?"); blab3();}
  if (gft==3){PCListen(); customertalk(); rmu_text.Text=("Have you acquired our book yet?"); blab3();}
fmu_text.Text=(" "); fmu_speaker.Text=(" "); dBarneys_gotbook.Start();}
if (GetGlobalInt(411)==0){fmu_text.Text=(" "); fmu_speaker.Text=(" "); Mouse.Visible=true;}
  if (GetGlobalInt(411)==8){
    PCListen(); customertalk(); rmu_text.Text=("Try our new drinks, won't you?"); blab3();
    PCListen(); customertalk(); rmu_text.Text=("We're debuting a new blend to showcase our improved machine."); blab5();
    PCListen(); customertalk(); rmu_text.Text=("You're sure to enjoy it..."); blab5();
    customerlisten(); rmu_text.Text=(" "); rmu_label.Text=(" "); Mouse.Visible=true;}
}

function Portraiture(){
if (DBG0.Graphic ==2184){
  DBG2.NormalGraphic=432;
  salebuyer=("Barneys");
  PCListen(); customerlisten();
if (shp==0) {
PCListen(); customertalk(); dText.Text=("Hello. Welcome to the roastierry. "); blab3();
PCTalk(); customerlisten(); dText.Text=("Hey."); WaitMouseKey(80);
shp+=1;}
else if (shp==1){
PCListen(); customertalk(); dText.Text=("Hi there."); blab1();
PCTalk(); customerlisten(); dText.Text=("Hey."); blab1();
shp+=1;}
else if (shp==2){
PCListen(); customertalk(); dText.Text=("Greetings."); blab1();
PCTalk(); customerlisten(); dText.Text=("Hey."); blab1();}

customerlisten(); PCListen(); dText.Text=(" "); dName.Text=(" ");
salebuyer=("Barneys"); BuyorTalk();}

else 
{}}

function Portraiture_MC(){
if (DBG0.Graphic ==359){
}}


function region1_Standing()
{
if((IsKeyPressed(372)==1)||(IsKeyPressed(87)==1))
  {
player.DoorHandle();
int ran=Random(1);
    {    if (ran==0) PlaySoundEx(33, 3);
    else if (ran==1) PlaySoundEx(35, 3);}
  door.SetView(30, 0, 0);
  door.Animate(0, 2, eOnce, eBlock);  
player.DoorHandle2();
int ran2=Random(1);
    {if (ran2==0) PlaySoundEx(34, 3);
    else if (ran2==1) PlaySoundEx(36, 3);}  
FadeCharacterOut_NoBlock(player, 99, -15, 0);
  door.Animate(1, 1, eOnce, eBlock);  
  player.ChangeRoom(20, 354, 159);
  }
}

function region2_Standing()
{
if((IsKeyPressed(372)==1)||(IsKeyPressed(87)==1)){
  if ((gDialog.Visible==false)&&(gRoastierry.Visible==false)){TalkPop(); SetTimer(3, 43);}}}

function room_RepExec()
{
if (IsTimerExpired(4)==1){
  //Portraiture_MC();
  }
if (IsTimerExpired(3)==1){Portraiture();}
if (IsTimerExpired(1)==1){MarcusDrink();}

if ((hour>=10)&&(ampm==1)&&(hour!=12)&&(gDialog.Visible==false)){//Closing Time!
CloseAll();
TalkPop(); Wait(40); 
salebuyer=("Barneys"); customerlisten();
PCListen(); customertalk(); dText.Text=("Okay everyone..."); blab1();
PCListen(); customertalk(); dText.Text=("Thank you for coming in - it's been a pleasure seeing you all."); blab4();
PCListen(); customertalk(); dText.Text=("Good night!"); blab3();
PCListen(); customerlisten(); dText.Text=(" "); dName.Text=(" ");
if (player.InventoryQuantity[Ticket.ID]!=0){player.LoseInventory(Ticket);}
StopPop(); Wait(40); FadeOut(5); player.ChangeRoom(20, 354, 159);}
}

function region3_WalksOnto()
{cBarneys.Animate(3, 3, eRepeat, eNoBlock, eForwards);}

function region3_WalksOff(){}

function region2_WalksOnto()
{cBarneys.Animate(1, 3, eRepeat, eNoBlock, eForwards);}

function region4_Standing(){}
 //if((IsKeyPressed(372)==1)||(IsKeyPressed(87)==1)){
   //if (gDialog.Visible==false){TalkPop(); SetTimer(4, 43);}}}

function room_Leave(){Marcus.UnlockView();}

function Room_Load()
{
//  aMusic22.Play();
}
